Label,X,Y
Escape to Grizzly Mountain,-3.8604506784073664,7.6246319591278615
Kimi ga wakamono nara,-15.279118804129725,2.012660895421966
Dropping Out,12.649572906713887,0.9670597299601138
Englar alheimsins,-3.130286375688759,-4.752935418028126
101 Ways (The Things a Girl Will Do to Keep Her Volvo),3.2881482644366815,7.849674925027459
The Suicide Club,-13.039253805356848,7.536697666222132
Vamsee,37.7506182428745,-32.31851967190698
Across the Line,1.4454854947780016,6.463041201324737
The Spreading Ground,3.995817701473444,8.687676304420322
Tajna porodicnog blaga,-7.066303780495181,11.577041978926944
Eteraz,-10.856676459834153,2.6497059577157502
"Satyam, Shivam, Sundaram",30.334798306238433,-42.58478028765839
Dastha-ye aloode,8.103019512400156,7.083614344922913
The Operator,5.204399671277299,5.2285055064352335
Everything's Jake,-9.096051240015344,6.229184896747618
Loveblind,2.670303576732424,9.595858391991154
3 Strikes,-20.045127722923226,14.372643971155991
La vie moderne,15.022500620703724,-21.10616455469134
Secrets of a Chambermaid,1.7045001503857102,7.269130576584486
Civility,-18.620117129406164,17.911290965146215
The Last Great Ride,-11.938636901824465,11.261410970298568
Hatsukoi,9.893808566675784,-12.249238257660956
Interview,11.44097835746472,1.7504893956435847
Lush,-5.76163333261196,10.748673005011362
The Unscarred,-9.050236881748141,6.8240395786448875
Seducing Maarya,11.960898023053215,4.35564996801665
101 ReykjavÃƒÂ­k,-16.659530143889604,2.0293385609999923
Iki-jigoku,8.652810483064755,4.634458875360069
PapÃƒÂ¡ es un ÃƒÂ­dolo,-17.002201684073544,14.933505136469758
Nezhnyy vozrast,21.006506984906803,-26.867200393180642
John John in the Sky,5.215643456277991,1.7161012676425733
Ricky 6,14.633578880513445,-1.4542543559312568
Island of the Dead,-7.099487802064862,16.376317686851035
Blood,-18.403293153303593,13.413579678927071
Blagajnica hoce ici na more,-18.688877273122603,5.141916110219549
Bichunmoo,20.384956688582136,-8.497830055634662
Sally,-23.015041614386774,16.207394531012408
The King's Guard,-5.937131251411758,15.022733322147225
The 13th Sign,-15.509943241605917,17.850330647817003
Beyond the Pale,-3.5540606848050817,4.956001973014643
Scream 3,19.141570450367954,-4.259828606550139
Highlander: Endgame,-14.977419868892772,13.095455547910776
Tick Tock,-4.1559914223024315,6.981928945963469
Space Cowboys,24.100778880486832,-22.728410613575043
Primary Suspect,-8.418840069109127,11.98077349672512
Da jeg traff Jesus... med sprettert,-16.360617750714525,3.3226906135485446
100 Girls,-5.395304939765005,7.656611151152368
Doomsdayer,-4.417008535546183,14.552383508913334
Hochelaga,18.517175667285894,-28.429824374168145
Hur som helst ÃƒÂ¤r han jÃƒÂ¤vligt dÃƒÂ¶d,-1.1260913296574684,14.498126766056378
I Cento Passi,20.279893578050498,-2.390346043338883
Sam the Man,-14.205850203313968,11.640090981670285
The Rising Place,-7.331153373087699,6.178130807356456
Lying in Wait,-8.638588400526235,11.008605160465363
Knight Club,-10.495691328529697,9.88355538212548
Z pekla stestÃƒÂ­ 2,7.880057541246892,10.28792524513184
Gang Tapes,-9.951394469260629,7.016107739169884
Randall's Flat,0.5030781858153681,15.313207188284082
Mosafere rey,17.95543171973909,-4.708283122402816
Abi,-23.820060816076317,13.149132403831922
The Price of Milk,-17.297084935271634,4.250985322627148
On Edge,-6.282037129247137,9.215701574788923
Do You Wanna Know a Secret?,-9.228467006729725,14.750816348339795
Costa!,-2.3666982790575504,10.907339228997358
Ji fat faan fat,1.8571944820623607,-1.5672519703210692
They Crawl,-5.018588581895964,13.21253543590969
Karumadikkuttan,30.897282589231345,-32.02608485792926
Wrong Number,-0.529546567488554,8.746711207103566
"Vegas, City of Dreams",-6.769043545768086,7.779623557315184
The Profit,20.069073742684395,-23.04241046697447
Megasandesam,59.40132334345249,-45.38688723036086
Laguna,-8.666135191838558,7.573372198928952
Menace,-11.339518992144944,18.019557370905435
"Hey, Happy!",-26.935723559579035,18.752721993955202
Gua sha,-0.6053994691746104,-0.9133368507351673
The Crow: Salvation,6.35837682963355,7.421287103153859
The Yards,17.753750988384358,-5.889093905285451
The Monkey's Mask,-5.471339436575294,11.417900466133219
Pearl Harbor,61.94865176552331,-61.356028809906604
Outlaw Prophet,-9.290455967785302,14.550921936604375
25 Watts,-11.020780272485078,1.359639878618266
Princesa,-7.5409714257924865,2.855546734742752
You ling ren jian,2.8111881998786603,2.624683753324806
Boys Klub,-0.9016363428721988,12.092181866946419
Yi yi,49.09178328303765,-62.391539287823065
03:00:00,-8.87258842838068,6.448740473262594
Soft for Digging,-29.819624479430473,11.557761253425117
Harvard Man,1.3376903268958185,7.032188152250019
Good Neighbor,-14.657636088105187,14.649679870061274
Pressure Point,-9.909242566261904,12.504147533558848
Jon Good's Wife,-18.754792876234134,16.764628243671776
Bug Off!,-16.656551447079305,16.390206691687982
Narendran Makan Jayakanthan Vaka,34.627846349693925,-41.33656428710181
Alien Factor 2: The Alien Rampage,-25.513947604897552,20.697848397094102
55 esaaf,-0.6244819381064353,11.401089332283894
Out of Line,-2.1139472083245,8.75869669915866
Killer Me,-21.67490082597957,15.345705027887824
Ball in the House,-4.302019810489045,6.795484951477309
ÃƒËœyenstikker,13.70245204201806,-2.99378449663453
Altered Species,-7.367160545166086,15.673550140704188
L'uomo in piÃƒÂ¹,-1.8744890568358727,-2.9228245580154293
"Operai, contadini",16.111500261910493,-19.699158604078026
The Lost Skeleton of Cadavra,-12.073186554733313,5.528646392488802
Jin nian xia tian,10.487514008554268,3.792131711551001
Sanctimony,-12.863593936797798,17.891567173142906
O XangÃƒÂ´ de Baker Street,17.694899465818903,-20.39349825344026
Dead Dog,-10.959951575341927,8.378116414838857
Campfire Stories,-1.9892650374883272,13.304203033029676
"Mafioso: The Father, the Son",7.433655710142298,4.987249298559756
H3,-14.868806826602466,5.603689491229246
Instinct to Kill,-10.242843672698005,10.872442713647958
Shui shuo wo bu zai hu,10.352643307222671,-5.951645588747904
Ishtam,8.766063963035538,-8.333906188850023
Shark Hunter,-3.403304208293521,13.576543598113314
FinalCut.com,-19.89959362066358,9.387750902814238
.com for Murder,-0.08172438173703375,14.083976133704745
Sideshow,-9.986909521454594,12.407571661960667
Drift,-14.025302408314944,4.622192966310479
Nexxt,20.256303154341477,-3.2075779665712805
Berlin Is in Germany,-2.652970938358437,-1.7519880577777942
The Keyman,-10.530593778735872,9.624926992267628
Face Value,-4.262597008678152,10.865857776475426
Askari,-16.533780396448854,12.45344404979047
Batang West Side,154.06924551984224,-157.81863457493267
Megamalhar,-13.6759263814177,1.781112396151314
Shadow of the Vampire,-11.65549472241663,0.6128168639455771
Wo hu cang long,23.27832831123417,-10.208540404255075
Left Behind,4.215443334230995,9.317010990130193
Meet the Parents,12.182066851636122,-0.05969301216333615
Faust: Love of the Damned,1.9751860335985443,10.813224301217922
La ville est tranquille,24.768119189005667,-40.55638540455409
Egoisci,7.666362130166758,6.072934642176679
El factor Pilgrim,-17.441932832453322,4.736619016910874
Valentine,-2.083089491418502,8.826727975099685
L'ultimo bacio,14.595943505707181,-10.182753628771021
Vizontele,15.32799102322454,-0.6080219026452918
Kasoor,34.562402337507166,-42.702114029692346
El cielo abierto,8.227310486779983,-8.560565148109104
Stakaman!,2.868611907225878,5.868293931579714
Minnale,54.55097128295465,-53.31784081955448
No Quarto da Vanda,56.726731568586416,-50.993469082175984
Moskva,23.74778339246701,-35.68071544320483
Quills,14.407640462611147,-23.893966799680033
Dracula 2000,2.245498398596542,8.522429744243475
Proof of Life,22.1282286957879,-31.50111222505822
Amores perros,31.431201457945527,-50.996997045578254
Pismo do Amerika,-14.520354012487935,0.7825653765684287
Downward Angel,-0.6715373639326047,8.946949803931194
Cyclomania,-8.027427086908142,5.268979832718504
Carman: The Champion,-20.8549297377801,10.937031070083027
Dumb Luck,-5.89567800082983,10.45111195010707
AmatÃƒÂ¸rene,-15.665873488388124,4.2857125260180515
Przedwiosnie,34.95787948501435,-26.798617746937452
E adesso sesso,-9.284351550267049,14.967369383017312
O kalyteros mou filos,7.752200728626359,4.070844535032092
No te fallarÃƒÂ©,12.55775053150138,-7.370650261055085
Sanam,-16.150964498626475,3.15197849768554
Le soleil au-dessus des nuages,-5.409072242586997,1.4282092667862358
Queen's Messenger,-3.422962086194769,13.117231659077946
Suchwiin bulmyeong,18.52721189697417,-9.46855036968919
Azzurro,-21.305828792938758,3.4452990609973484
Tomorrow by Midnight,-12.298840635368096,8.903548911559652
Taxi Para Tres,-13.323076491418256,2.638066178964926
Londinium,-15.667958053640444,9.878009127672524
To End All Wars,17.52071412688435,-21.780464933232587
Angelus,0.8644811411037383,-5.35927990236973
Tangled,-16.712394556354244,8.986043679927187
Gabriel & Me,-18.65980288809197,10.707906143197409
Om inte,-11.289248960276915,9.659681411677273
According to Spencer,-4.187005958992858,10.703806433189094
This Filthy Earth,11.454709283852125,-5.310036572826877
Vidas privadas,-2.9789221082948893,3.0491928154841856
Fukssvansen,-12.286172373871755,6.024349510106802
Fotograf,-39.84334457456312,5.626735869366228
Samia,-33.11116565133452,4.685411753844354
Sensual Friends,-6.397568450490688,8.917254621196655
Beonjijeompeureul hada,5.436231229513282,-6.850594968265305
Kairo,16.753673948968835,-13.960900763518543
Al assifa,3.4479166734034505,6.163201617509282
One piece: Nejimaki shima no bÃƒÂ´ken,-51.570369888088955,6.877350532052549
Lay It Down,-47.455754096363385,31.982474149526894
Lost Killers,-4.449522265945673,-1.8517185095953028
AmnesiA,-13.093685878776952,3.3282936217821515
Antigua vida mÃƒÂ­a,12.542233847976622,-2.1674211619052475
Double Whammy,-6.8848008666994165,7.54984105808507
Focus,-1.4782384330921547,3.3422161866375997
Anja & Viktor,-11.615304967655545,8.77816917519816
Chuen zik saat sau,0.8092819239267962,-3.214280484282218
Gente pez,-12.41185433776141,11.204392290491462
Hum Ho Gaye Aap Ke,58.860668436997614,-42.9305254236906
The St. Francisville Experiment,-22.322089573356852,17.984251667845243
Jacked,-3.4428401972730813,5.328653958376584
Martha... Martha,-4.386566326357296,0.4477488089178657
Delivering Milo,-5.682087709118148,6.926524612368898
24,-27.09237406878922,5.929028731677146
Waiting for Godot,16.79472752283353,-15.829570756416691
All You Need,6.027143536629527,-0.5750209061741591
Boesman and Lena,-13.219324692599892,3.8345490648259433
Antitrust,9.499089498417066,-1.706573200603867
El viaje de AriÃƒÂ¡n,3.7053176076209198,-3.266124606763722
Lloyd,-30.216702390704725,9.928638832857539
The Long Run,14.626955652520696,-2.779414859779371
Intimacy,18.629114460128267,-10.99560271519949
Mockingbird Don't Sing,-2.2387442186335753,1.5773201368485044
Ganhar a Vida,13.161324509016536,-11.243189133330583
Herkes Kendi Evinde,9.714029426332658,-6.574461402116666
El palo,-16.65597737459799,5.440457601794097
V avguste 44-go,13.333561898162406,-1.0635149198944078
It Had to Be You,-2.531721781160982,7.163857555225178
Hijack Stories,-12.710356164572904,5.104822123269559
Que faisaient les femmes pendant que l'homme marchait sur la lune?,-4.485520129535506,-2.1735988014780694
Critical Mass,-2.3510649691145296,12.323366338439271
La boÃƒÂ®te,4.38197233205219,9.495417133566134
Ee Parakkum Thalika,27.923288278932784,-31.646464478100558
All About You,0.8017801578178856,2.226281613654965
Going Greek,-10.166553326894617,11.050014868255497
Sorum,1.620955654616492,3.013797127102209
Bodywork,-7.979445929299214,8.975921817510926
The Hollywood Sign,-11.07114604837369,9.157594439991735
DÃƒÂ©jala correr,-18.104004165837576,5.244727539073458
Der kleine EisbÃƒÂ¤r,-27.076905346985757,7.492776983043882
100 Pro,-17.72759082107247,7.163627456597221
Daddy,40.67272547461605,-45.51470657371154
La Fiebre del Loco,-4.289572124751191,0.5247561666583296
The King Is Alive,12.312672390345238,-3.853576967052833
Ftina tsigara,-20.90138258308088,1.9734783667165634
Filler ve Ãƒâ€¡imen,18.716519152287923,-5.888935583994747
Non ho sonno,17.645266713511276,-9.509732242143722
Pieniadze to nie wszystko,15.319864697480172,-16.53275838813214
Pang see: Song jun tin leung,-14.06006968789224,10.74140012906173
Ren tou dou fu tang,-18.522717697090812,13.63383177845528
Blind Heat,-2.5660539024103897,11.125470272159424
Cahoots,9.326626708169028,-1.6304356532394984
I'll Remember April,-11.995063309725678,6.700761165266102
Escape to Life: The Erika and Klaus Mann Story,-19.41233050727525,6.276386052619278
Lo Foo Ji,8.654960812614968,5.815253265865954
Killer Tattoo,15.099079421630503,-7.346507443078945
El segundo aire,-2.4971933256334884,1.118862506023559
Indian seommeo,5.943350216292293,0.29854060257331466
Blue Hill Avenue,21.593889147628833,-21.456676625531106
Stereo Future,9.353216607379062,-9.15984812453085
El lado oscuro del corazÃƒÂ³n 2,10.438376822334511,-7.688158506885582
World Traveler,5.320305473671366,2.9774677346588665
Tornando a casa,-15.286852113258613,5.035729149605397
BrÃƒÂ¨ve traversÃƒÂ©e,-20.896507315247852,4.184290393883232
A.I. Artificial Intelligence,28.210251479869285,-41.11060775906617
BelphÃƒÂ©gor - Le fantÃƒÂ´me du Louvre,0.38095382199218736,10.127091500224164
Large,-24.434170894274878,16.007210550355296
MVP: Most Vertical Primate,-13.802529166447146,14.205791932571108
La loi du cochon,-4.062815738381368,-1.6026280504642882
Emmauksen tiellÃƒÂ¤,-25.38974742439987,4.673704869297121
Wish You Were Dead,2.5697922994982685,6.6169998925191384
Being Light,-3.722527844204883,4.731325293108757
The Shipment,-6.792083863761226,12.392941513285713
Inch'Allah dimanche,-1.0994419957318116,3.539938571541482
Hwasango,19.44392049927944,-12.507214977786827
Satan Was a Lady,-21.957646804350425,14.474843157770588
Olive Juice,-12.536671198320292,12.895701793622461
The Shrink Is In,-7.665877284299018,9.398432941180939
Judgment,8.378825444489927,3.44886618242117
Party,-14.850862813850654,7.061971736061437
The Emperor's New Groove,-27.79451841002586,5.720610802917577
Thirteen Days,29.192706330231243,-40.07779433997131
Best in Show,-13.298738373295476,3.970005732467069
Peaches,-19.00336163296173,11.768415734362101
La comunidad,6.94567890350008,-10.85372247199956
Just Visiting,-15.14685758951262,6.56634988596932
Grev Axel,-18.513966839194406,3.7986590834126206
Ginger Snaps,8.704480891107965,-4.524745387311631
The Mummy Returns,24.36640744788348,-22.359565520038966
Lady in the Box,6.829275350774996,0.737077744969312
Goodbye Charlie Bright,-15.955442940742666,6.435999406414951
Il mestiere delle armi,3.719943492674444,-5.352756157235227
Lena,-4.584414714094513,0.16512743181094636
Biohazardous,-2.3093655603664276,12.368360311223736
Cowboy Up,7.341670006821392,1.8612291833085888
"Yady, ili vsemirnaya istoriya otravleniy",6.068714258801068,-3.7666559564309114
Red Shadow: Akakage,11.426979547658862,0.2639061014571919
Genesis,-21.591578545978788,18.648132978918085
Understanding Jane,-3.521061562549442,2.233661174487519
Snakeskin,-4.802421263775211,9.096413068720585
The Medicine Show,2.955262938217537,1.1530297701642929
MacerÃƒÂ¡s ÃƒÂ¼gyek,-0.7268095842204569,-1.0828478053826838
Visionarios,11.058123535472626,0.06051945905832923
Lost Souls,-0.145796084874862,9.633873827093616
Cast Away,32.012805546021355,-35.854293220055624
Red Planet,9.984627214154573,2.6792317107705967
Tillsammans,3.1065388418634194,-8.38336310781461
AsÃƒÂ­ es la vida...,-3.817605757903242,-1.00791349356861
The Perfect Son,-14.011852950121783,5.249271725459561
Pleure pas Germaine,-6.435451032704642,-0.1988848349424681
TainÃƒÂ¡: Uma Aventura na AmazÃƒÂ´nia,-10.95395140420589,11.481111496800617
Pamptohoi A.E.,-10.697656195692215,11.92326882848164
Rentun ruusu,1.2394173958952754,-2.5254667664599966
Un mundo raro,-0.9248105707817641,-1.2268670518653704
The Boys of Sunset Ridge,-11.198071344814732,7.291544928990616
Big Eden,18.070773856154013,-11.395521415000601
ÃƒÅ½les flottantes,-23.00441244228713,5.205377577236567
Sacra Corona,22.811469184312134,-1.8119730472572124
Gau Lung bing sat,0.8624133253250484,-0.8869331689203458
Badri,42.09194825497269,-48.600439983206705
Daun Haus,-7.6914448737253895,-0.23785583361442522
Big Bad Love,12.125905574290318,-3.9705301968959144
TÃƒÂ´kyÃƒÂ´ MarÃƒÂ®gÃƒÂ´rudo,-4.189473689330027,0.7409250689963927
The Humanist,-5.9927118176166765,3.0166099049787167
Chiquititas: RincÃƒÂ³n de luz,0.6654067487835431,1.4444304328130873
Mesto na zemle,17.296246854065323,-23.540031114945098
Huang xin jia qi,9.218021175709715,-7.188468702529144
Happy Accidents,13.42482220125,-1.9602914728506822
Queenie in Love,3.5745179215663785,-0.8515500470997266
Harrison's Flowers,19.163093354699708,-28.160940946920665
Jolly Roger,-1.5850169203787567,13.183773449095488
Disco Pigs,-8.534216405190932,3.8164474169668368
Scary Movie 2,-20.197846988350594,10.469519323741645
Mari del sud,-7.284880242990604,3.5509601876633163
De la calle,-20.852731059420567,3.495857434978472
Min sÃƒÂ¸sters bÃƒÂ¸rn,-32.221958380299725,9.670767043306604
Endgame,11.600749148603308,-0.8077954029146315
O da beni seviyor,5.579989072988457,-4.42463864402851
South West 9,-11.620731857604744,6.707107631917989
A Janela (Maryalva Mix),2.7869029079838743,-4.388298584911746
Unseen Evil,-4.958289924854339,13.410881566383958
Reasonable Doubt,-7.667394736529118,14.586433460896458
Sve je za ljude,-6.990435568412472,16.616576700855262
Bully,8.835312260861203,-3.914024639864123
Les rois mages,4.421316477570612,3.008491866269828
Road Dogz,-9.512154664815272,8.91898434286412
Run Ronnie Run,-17.240327905727955,7.861316168423645
13 Moons,-6.798478871298776,8.09417960937987
Summer,-9.177251052495302,2.948602611907271
Face,-13.210738820906554,6.928888142726162
Final Breakdown,-20.11228291961388,11.77540775499525
On_Line,-1.0674782817177346,7.429629971725955
"Britney, Baby, One More Time",-25.794772910140065,13.06402636756186
Mounam Pesiyadhe,31.74396353274069,-42.82138717070167
Aadi,37.2270200474248,-49.85344365316042
The Dancer,-13.46001864425006,7.25421491466718
The Fluffer,-4.100600166132988,7.259735814814156
Dekapentavgoustos,5.17900962099742,-4.953979675091959
Une jeune fille ÃƒÂ  la fenÃƒÂªtre,-13.362144772488044,2.4328882988444613
Vanilla Sky,23.957719596590458,-31.700098187583386
Figli/Hijos,-10.378648037996259,2.650726833372848
Carne de gallina,-4.256099962163726,3.6630951124330347
Slackers,-16.898173663404886,10.007063929949801
Hus i helvete,3.9155351056656413,7.4587701556929105
2009 loseuteu maemorijeu,21.203605806692114,-33.69433254047577
Avassaladoras,-5.026610167927225,12.2734726645363
Kuutamolla,20.818492717027464,-5.231413640611444
Filhaal...,38.523112218345794,-39.85579876133454
Khab-e sefid,-14.078330069855408,1.5928257641664363
Tam i z powrotem,-0.44348334902175235,-5.211411501907558
Shaam-e-akhar,-4.858966038938587,2.6557537532447295
Kate & Leopold,16.584023635698184,-12.084357667539754
Vidocq,-3.080526797814856,0.0951990660997245
Legion of the Dead,-10.782996373600206,15.134269465896129
When Strangers Appear,-1.8354488562731195,2.4332888385756277
American Outlaws,-5.9204669400393835,6.3194234153658595
Crush,10.635848737274706,-1.1165943015045152
Thir13en Ghosts,-9.876825875280641,7.948118104178767
Ali,35.54033654249063,-49.676347185014116
How Harry Became a Tree,-1.0589538772445233,1.1077751338082684
Zuotian,15.575307138537843,-7.5815619474619025
Pes sti morfini akoma tin psahno,15.33259562899665,-15.015831291717642
The Perfect You,-10.961349230222623,9.316407446481314
Made-Up,-3.046724736924405,6.049811823485301
Sin destino,-1.240684530016011,5.997496282818392
The Rose Technique,0.18631143475062573,10.717159263466264
Lundi matin,20.718909625843036,-12.282517388919658
Chopin. Pragnienie milosci,32.62601243143958,-20.49861729796112
Whacked!,-9.82492166868026,8.205049161954276
The Gatekeeper,6.4129934086377,5.394780405943228
Pido nunmuldo eobshi,14.586459541175131,-11.864394308781087
PulsaÃƒÂ§ÃƒÂ£o Zero,-22.825139909514093,3.394853895220445
En la ciudad sin lÃƒÂ­mites,15.553252984368005,-23.90333598523762
Nati stanchi,-10.554917783864214,3.1642611278848567
Nowhere,2.955569967966572,5.1810252572475175
Grand Champion,-5.053394465703523,12.941042699706673
Briar Patch,5.973563940681072,3.9616620191427447
Florida City,-8.821093917224555,10.941215749399916
Children on Their Birthdays,3.3383345566834257,1.104075491996084
Farewell to Harry,4.330853565312417,0.6500370177125038
San jaat si mooi,1.4856842282547171,-4.334368649484611
Subconscious Cruelty,-6.521574985314258,12.80748337878045
"Wesh wesh, qu'est-ce qui se passe?",-21.996732008958503,4.057384747146608
The Hawk & the Dove,-9.6767506818377,14.270691924495905
Time of the Wolf,-16.546178888929184,6.227889822236055
The Greenskeeper,-8.833982164036666,16.096425391545797
Storm Watch,3.4542342315197962,8.197518532768145
Kitne Door... Kitne Paas,39.52990370100897,-32.05204689499959
The Sculptress,6.309966653805984,10.326817863404742
Crime and Punishment,16.692521777518763,-23.79959037980711
The Anarchist Cookbook,4.327475172989104,6.746055048109404
The Round and Round,36.002232571899825,-12.605406081766382
Paper Soldiers,-13.801048523534469,9.93372276216138
Shadow Fury,-10.974110332268229,13.768449126584562
Chong chu ya ma xun,6.567803677251778,6.754032223381622
Tian mai zhuan qi,8.329507033038846,7.819383299443135
Snake Island,-9.030208052267357,15.692567603522994
[Anti]killer,16.050553271887598,-6.451450053794913
Meesha Madhavan,45.685116365437246,-54.356559640963894
Zhou Yu de huo che,-5.213680698488978,-0.7486109625849233
The Book of Eve,0.6654588231217657,7.843766729617618
Petualangan Sherina,17.93858448634179,-1.170322639306373
QuÃƒÂ©bec-MontrÃƒÂ©al,8.855873654761638,3.261732271996074
Speck,-21.344280103878194,19.941230499664485
Curse of the Forty-Niner,-14.48314215093015,15.809965926864997
On the Edge,0.21116268910560249,10.803894042906293
A Selva,9.778105775086413,4.396093056293329
Cheats,-17.66274347554494,7.524245684614912
Purpose,-2.3348066201722926,7.80997958394871
Como el gato y el ratÃƒÂ³n,-7.535178242120779,0.3127342719040522
Hacks,-6.166934968486681,9.778807003387746
Rub & Tug,-10.303185420849916,11.959027996020424
Leela,-2.633814127548887,3.673704611042614
Morvern Callar,-5.52006360197308,-1.328118754317185
Two Men Went to War,8.05002562053522,-6.864980870097516
A Midsummer Night's Rave,-17.11929974277742,11.622366743962926
Waah! Tera Kya Kehna,5.3695132093421805,11.10256139211499
Ruoma de shi qi sui,-16.536111162213963,2.187348503693841
SÃƒÂ©raphin: un homme et son pÃƒÂ©chÃƒÂ©,7.772896229812933,-9.13694556693534
The Calling,19.64405340560864,-2.916005255207052
L'extraordinaire destin de Madame Brouette,4.655016576304673,-2.0087680969756754
Hitters,-12.776781653775044,12.908402904274233
The Wisher,-9.749159217719798,13.462786293401736
I fouska,9.685471047204706,7.610415125289158
Contagion,-2.159115765438497,12.350836354162528
One piece: Chinjou shima no chopper oukoku,-50.72259945217285,8.342556907679107
The Proposal,-9.170278708250944,9.212473291026425
Get Well Soon,-3.728784754839859,8.180573869520385
Angels Don't Sleep Here,-11.40603458439609,17.70039958850655
The Frightening,-15.361101364687798,17.20258827684849
Focus,6.952440557275848,-1.822935620693302
99euro-films,-25.644209533149724,8.356410915118266
Pavilion of Women,18.176563135107532,-6.757583151784026
Lovely & Amazing,-10.482955597300021,5.6251476764332775
Otilia Rauda,8.598264332722147,-7.868649212618117
Grabben i graven bredvid,-4.0366077360780155,10.214410786148699
Avunu Valliddaru Ishtapaddaru,30.48616958023333,-45.27129698503167
Joheun saram isseumyeon sogae shikeojwo,4.212101200336372,4.568171069548818
As TrÃƒÂªs Marias,-12.919951082187255,4.7357354799273015
Akhiyon Se Goli Maare,28.176251312133058,-41.75036441786745
Nebo. Samolyot. Devushka.,-12.536355722836166,1.6107663573208506
Looking for Jimmy,-11.67616615719982,8.087204652097864
YMCA Yagudan,4.736730561004253,-2.0269674810403506
Tasogare Seibei,28.521420708048158,-19.419964707625198
Mein Stern,-41.385134477017694,5.163129916655795
The Fall of the Louse of Usher: A Gothic Tale for the 21st Century,-19.145793042802772,14.546814249876418
Aftermath,-19.895225423003772,12.795590339374504
The Dogwalker,-2.3363057434322507,-1.1715936696211604
Tristan et Iseut,-21.47271840765379,10.48805088807161
Italiensk for begyndere,19.045424235073337,-11.135907100333785
Saving Silverman,-12.383797248574792,5.72536474300902
Mademoiselle,-19.49997518063246,4.527790883664955
The Cat's Meow,14.559165063670408,-7.207567789970554
Sur mes lÃƒÂ¨vres,16.621325671018514,-8.29601761717084
The Warrior,-18.524256003508064,3.460540290408273
Itiraf,-1.4461429585803673,-2.313690229177796
Deuces Wild,-2.215040648439321,7.543893488797023
Queen of the Damned,4.719163865101809,6.794862223662324
The Count of Monte Cristo,28.732235508088767,-21.33761974090462
King Rikki,-8.933454886995541,10.56685989815792
Bloody Sunday,12.503385174233827,2.610155390131525
KT,22.288175157196886,-35.444252933817246
Obeo deo reinbou,6.41705785065715,-9.46582138249708
Ildan dwieo,16.193931144154007,-16.194711631941132
Hush!,24.836991168088204,-29.62977595100591
Cravate club,-19.32527769927833,8.427332968217192
A+ Pollux,-13.082742702681047,4.3131416107295655
Yeh Hai Jalwa,54.01722024990531,-44.5255970492109
Fixing Frank,5.530737164216377,3.283643717493424
VelocitÃƒÂ  massima,12.06671420454951,-6.115472569474826
DomÃƒÂ©sticas: O Filme,-19.979186231598895,3.0811274635207964
ÃƒÅ½n fiecare zi Dumnezeu ne saruta pe gura,-9.629403931433474,1.3943638179256146
"Mercano, el marciano",-17.713500990079066,2.8745038370837115
New Suit,-5.369042576154442,7.858883514717228
Das Jahr der ersten KÃƒÂ¼sse,-9.240514477613344,-0.18931859544078392
Un oso rojo,-3.520221511675517,6.732917097914836
No Place Like Home,-16.584412143656742,13.346172968555427
Frogmen Operation Stormbringer,-9.087963532106995,15.203825281112985
Bride of the Wind,0.6969708450611211,4.824693415766496
MinÃƒÂ¤ ja Morrison,-8.668046420344211,11.603797358853358
Pitaah,22.93484981137407,-19.061619555593087
A Bomba,-13.680672233444898,2.7612475350963837
She's No Angel,-10.62517933346965,10.367073227979036
Ya kukla,-1.5673989595615958,-5.6072203763454205
La habitaciÃƒÂ³n azul,4.106762624289971,-2.7088238715840003
Love Life,-5.876056678389318,3.5814068757338604
